INDEX VERSION 1.130+C:\Users\nico_\Documents\GIT\integracion\.metadata\.plugins\org.eclipse.jdt.core
640904070.index
2857203730.index
1842452118.index
3620471903.index
2272273464.index
2696413015.index
4222385268.index
186957322.index
3873981024.index
659810013.index
2060620803.index
938698075.index
718395928.index
1729517484.index
3141958188.index
757224128.index
1064653662.index
2366276187.index
2654647533.index
1477788888.index
17430238.index
3505089779.index
2412763061.index
1011917566.index
771109880.index
999401939.index
4221145765.index
559129880.index
2709225165.index
718856266.index
1219717666.index
1689259093.index
1804293044.index
194259052.index
3560089206.index
648612256.index
2824946912.index
628019425.index
2927967508.index
957537512.index
1840326211.index
3653341125.index
2470519452.index
2374617534.index
1484906476.index
711940863.index
1368941147.index
350044543.index
3975332112.index
3793327851.index
1500495093.index
3920937576.index
2703055642.index
164101376.index
2612755506.index
1534440325.index
2399712470.index
1392360995.index
959426871.index
3698447926.index
4212024596.index
2776891901.index
3822322065.index
533432274.index
3960066656.index
848469205.index
4265864773.index
1965660783.index
148409970.index
2871168382.index
3145089323.index
2810532520.index
3113255989.index
3462726374.index
2127702449.index
3666609613.index
903641463.index
3830441937.index
2118297408.index
1354592060.index
1812515977.index
1512333989.index
1881261294.index
922380862.index
413501011.index
1935258248.index
